…
  |==========                                                                                 |  12%

| To avoid confusion and keep things running smoothly, let's remove the original dataframe from your
| workspace with rm("mydf").

> rm("mydf")

| You nailed it! Good job!

  |============                                                                               |  13%

| Print cran to the console.

> cran
# A tibble: 225,468 x 11
       X       date     time    size r_version r_arch      r_os      package version country ip_id
   <int>      <chr>    <chr>   <int>     <chr>  <chr>     <chr>        <chr>   <chr>   <chr> <int>
 1     1 2014-07-08 00:54:41   80589     3.1.0 x86_64   mingw32    htmltools   0.2.4      US     1
 2     2 2014-07-08 00:59:53  321767     3.1.0 x86_64   mingw32      tseries 0.10-32      US     2
 3     3 2014-07-08 00:47:13  748063     3.1.0 x86_64 linux-gnu        party  1.0-15      US     3
 4     4 2014-07-08 00:48:05  606104     3.1.0 x86_64 linux-gnu        Hmisc  3.14-4      US     3
 5     5 2014-07-08 00:46:50   79825     3.0.2 x86_64 linux-gnu       digest   0.6.4      CA     4
 6     6 2014-07-08 00:48:04   77681     3.1.0 x86_64 linux-gnu randomForest   4.6-7      US     3
 7     7 2014-07-08 00:48:35  393754     3.1.0 x86_64 linux-gnu         plyr   1.8.1      US     3
 8     8 2014-07-08 00:47:30   28216     3.0.2 x86_64 linux-gnu      whisker   0.3-2      US     5
 9     9 2014-07-08 00:54:58    5928      <NA>   <NA>      <NA>         Rcpp  0.10.4      CN     6
10    10 2014-07-08 00:15:35 2206029     3.0.2 x86_64 linux-gnu     hflights     0.1      US     7
# ... with 225,458 more rows
…
| Use ?group_by to bring up the documentation.

> ?group_by

| You are really on a roll!

  |================                                                                           |  17%

| Group cran by the package variable and store the result in a new object called by_package.

> group_by(cran, by_package)
Error in grouped_df_impl(data, unname(vars), drop) : 
  Column `by_package` is unknown
> group_by(cran, by_package = package)
# A tibble: 225,468 x 12
# Groups:   by_package [6,023]
       X       date     time    size r_version r_arch      r_os      package version country ip_id
   <int>      <chr>    <chr>   <int>     <chr>  <chr>     <chr>        <chr>   <chr>   <chr> <int>
 1     1 2014-07-08 00:54:41   80589     3.1.0 x86_64   mingw32    htmltools   0.2.4      US     1
 2     2 2014-07-08 00:59:53  321767     3.1.0 x86_64   mingw32      tseries 0.10-32      US     2
 3     3 2014-07-08 00:47:13  748063     3.1.0 x86_64 linux-gnu        party  1.0-15      US     3
 4     4 2014-07-08 00:48:05  606104     3.1.0 x86_64 linux-gnu        Hmisc  3.14-4      US     3
 5     5 2014-07-08 00:46:50   79825     3.0.2 x86_64 linux-gnu       digest   0.6.4      CA     4
 6     6 2014-07-08 00:48:04   77681     3.1.0 x86_64 linux-gnu randomForest   4.6-7      US     3
 7     7 2014-07-08 00:48:35  393754     3.1.0 x86_64 linux-gnu         plyr   1.8.1      US     3
 8     8 2014-07-08 00:47:30   28216     3.0.2 x86_64 linux-gnu      whisker   0.3-2      US     5
 9     9 2014-07-08 00:54:58    5928      <NA>   <NA>      <NA>         Rcpp  0.10.4      CN     6
10    10 2014-07-08 00:15:35 2206029     3.0.2 x86_64 linux-gnu     hflights     0.1      US     7
# ... with 225,458 more rows, and 1 more variables: by_package <chr>

| Not exactly. Give it another go. Or, type info() for more options.

| Store the result of group_by(cran, package) in a new object called by_package.

> by_package <- group_by(cran, package)

| All that hard work is paying off!

  |==================                                                                         |  19%

| Let's take a look at by_package. Print it to the console.

> by_package
# A tibble: 225,468 x 11
# Groups:   package [6,023]
       X       date     time    size r_version r_arch      r_os      package version country ip_id
   <int>      <chr>    <chr>   <int>     <chr>  <chr>     <chr>        <chr>   <chr>   <chr> <int>
 1     1 2014-07-08 00:54:41   80589     3.1.0 x86_64   mingw32    htmltools   0.2.4      US     1
 2     2 2014-07-08 00:59:53  321767     3.1.0 x86_64   mingw32      tseries 0.10-32      US     2
 3     3 2014-07-08 00:47:13  748063     3.1.0 x86_64 linux-gnu        party  1.0-15      US     3
 4     4 2014-07-08 00:48:05  606104     3.1.0 x86_64 linux-gnu        Hmisc  3.14-4      US     3
 5     5 2014-07-08 00:46:50   79825     3.0.2 x86_64 linux-gnu       digest   0.6.4      CA     4
 6     6 2014-07-08 00:48:04   77681     3.1.0 x86_64 linux-gnu randomForest   4.6-7      US     3
 7     7 2014-07-08 00:48:35  393754     3.1.0 x86_64 linux-gnu         plyr   1.8.1      US     3
 8     8 2014-07-08 00:47:30   28216     3.0.2 x86_64 linux-gnu      whisker   0.3-2      US     5
 9     9 2014-07-08 00:54:58    5928      <NA>   <NA>      <NA>         Rcpp  0.10.4      CN     6
10    10 2014-07-08 00:15:35 2206029     3.0.2 x86_64 linux-gnu     hflights     0.1      US     7
# ... with 225,458 more rows
…
| Recall that when we applied mean(size) to the original tbl_df via summarize(), it returned a
| single number -- the mean of all values in the size column. We may care about what that number is,
| but wouldn't it be so much more interesting to look at the mean download size for each unique
| package?

...

  |=======================                                                                    |  25%

| That's exactly what you'll get if you use summarize() to apply mean(size) to the grouped data in
| by_package. Give it a shot.

> summarize(by_package, mean(size))
# A tibble: 6,023 x 2
       package `mean(size)`
         <chr>        <dbl>
 1          A3     62194.96
 2         abc   4826665.00
 3    abcdeFBA    455979.87
 4 ABCExtremes     22904.33
 5    ABCoptim     17807.25
 6       ABCp2     30473.33
 7    abctools   2589394.00
 8         abd    453631.24
 9        abf2     35692.62
10       abind     32938.88
# ... with 6,013 more rows
…
| Print the resulting tbl, pack_sum, to the console to examine its contents.

> tbl
function (src, ...) 
{
    UseMethod("tbl")
}
<environment: namespace:dplyr>

| Not quite, but you're learning! Try again. Or, type info() for more options.

| Type pack_sum to view its contents.

> pack_sum
# A tibble: 6,023 x 5
       package count unique countries  avg_bytes
         <chr> <int>  <int>     <int>      <dbl>
 1          A3    25     24        10   62194.96
 2         abc    29     25        16 4826665.00
 3    abcdeFBA    15     15         9  455979.87
 4 ABCExtremes    18     17         9   22904.33
 5    ABCoptim    16     15         9   17807.25
 6       ABCp2    18     17        10   30473.33
 7    abctools    19     19        11 2589394.00
 8         abd    17     16        10  453631.24
 9        abf2    13     13         9   35692.62
10       abind   396    365        50   32938.88
# ... with 6,013 more rows
…
| Now we can isolate only those packages which had more than 679 total downloads. Use filter() to
| select all rows from pack_sum for which 'count' is strictly greater (>) than 679. Store the result
| in a new object called top_counts.

> top_counts <- filter(pack_sum, count>679)

| You're the best!

  |=======================================                                                    |  42%

| Let's take a look at top_counts. Print it to the console.

> top_counts
# A tibble: 61 x 5
      package count unique countries   avg_bytes
        <chr> <int>  <int>     <int>       <dbl>
 1     bitops  1549   1408        76   28715.046
 2        car  1008    837        64 1229122.307
 3    caTools   812    699        64  176589.018
 4 colorspace  1683   1433        80  357411.197
 5 data.table   680    564        59 1252721.215
 6        DBI  2599    492        48  206933.250
 7   devtools   769    560        55  212932.640
 8  dichromat  1486   1257        74  134731.938
 9     digest  2210   1894        83  120549.294
10     doSNOW   740     75        24    8363.755
# ... with 51 more rows
…
...

  |==================================================================                         |  73%

| I've opened up a script that contains code similar to what you've seen so far. Don't change
| anything. Just study it for a minute, make sure you understand everything that's there, then
| submit() when you are ready to move on.

> submit()

| Sourcing your script...

# A tibble: 46 x 5
        package count unique countries  avg_bytes
          <chr> <int>  <int>     <int>      <dbl>
 1         Rcpp  3195   2044        84 2512100.35
 2       digest  2210   1894        83  120549.29
 3      stringr  2267   1948        82   65277.17
 4         plyr  2908   1754        81  799122.79
 5      ggplot2  4602   1680        81 2427716.05
 6   colorspace  1683   1433        80  357411.20
 7 RColorBrewer  1890   1584        79   22763.99
 8       scales  1726   1408        77  126819.33
 9       bitops  1549   1408        76   28715.05
10     reshape2  2032   1652        76  330128.26
# ... with 36 more rows
…
...

  |========================================================================                   |  79%

| That's exactly what we've done in this script. The result is equivalent, but the code is much less
| readable and some of the arguments are far away from the function to which they belong. Again,
| just try to understand what is going on here, then submit() when you are ready to see a better
| solution.

> submit()

| Sourcing your script...

# A tibble: 46 x 5
        package count unique countries  avg_bytes
          <chr> <int>  <int>     <int>      <dbl>
 1         Rcpp  3195   2044        84 2512100.35
 2       digest  2210   1894        83  120549.29
 3      stringr  2267   1948        82   65277.17
 4         plyr  2908   1754        81  799122.79
 5      ggplot2  4602   1680        81 2427716.05
 6   colorspace  1683   1433        80  357411.20
 7 RColorBrewer  1890   1584        79   22763.99
 8       scales  1726   1408        77  126819.33
 9       bitops  1549   1408        76   28715.05
10     reshape2  2032   1652        76  330128.26
# ... with 36 more rows
…
  |==========================================================================                 |  81%

| In this script, we've used a special chaining operator, %>%, which was originally introduced in
| the magrittr R package and has now become a key component of dplyr. You can pull up the related
| documentation with ?chain. The benefit of %>% is that it allows us to chain the function calls in
| a linear fashion. The code to the right of %>% operates on the result from the code to the left of
| %>%.
| 
| Once again, just try to understand the code, then type submit() to continue.

> submit()

| Sourcing your script...

# A tibble: 46 x 5
        package count unique countries  avg_bytes
          <chr> <int>  <int>     <int>      <dbl>
 1         Rcpp  3195   2044        84 2512100.35
 2       digest  2210   1894        83  120549.29
 3      stringr  2267   1948        82   65277.17
 4         plyr  2908   1754        81  799122.79
 5      ggplot2  4602   1680        81 2427716.05
 6   colorspace  1683   1433        80  357411.20
 7 RColorBrewer  1890   1584        79   22763.99
 8       scales  1726   1408        77  126819.33
 9       bitops  1549   1408        76   28715.05
10     reshape2  2032   1652        76  330128.26
# ... with 36 more rows
…
| To help drive the point home, let's work through a few more examples of chaining.

...

  |==================================================================================         |  90%

| Let's build a chain of dplyr commands one step at a time, starting with the script I just opened
| for you.

> submit()

| Sourcing your script...

# A tibble: 225,468 x 4
   ip_id country      package    size
   <int>   <chr>        <chr>   <int>
 1     1      US    htmltools   80589
 2     2      US      tseries  321767
 3     3      US        party  748063
 4     3      US        Hmisc  606104
 5     4      CA       digest   79825
 6     3      US randomForest   77681
 7     3      US         plyr  393754
 8     5      US      whisker   28216
 9     6      CN         Rcpp    5928
10     7      US     hflights 2206029
# ... with 225,458 more rows
…
